PharmaSUG China 2026 Pre-conference Training – 3 An R Package Engineering Workflow
…
$args
   n1    n2 mean1 mean2   sd1   sd2 
 "50"  "50"   "5"   "7"   "3"   "4" 

$data
# A tibble: 100 × 2
   group values
   <dbl>  <dbl>
 1     1   2.67
 2     1   3.08
 3     1   3.44
 4     1   5.08
 5     1   3.39
 6     1   2.98
 7     1   3.17
 8     1   9.74
 9     1   2.47
10     1   3.93
# ℹ 90 more rows
…
